10 Case Study in Data Wrangling | YARP, Yet Another R Primer
…
$exp.pos
[1] 4482    3

$marker.pos
[1] 2820    2

10.1.2 Gene Expression Matrices

> exp.g %>% cbind(rownames(exp.g), .) %>% as_tibble() %>% 
+   print()
Warning: `as_tibble.matrix()` requires a matrix with column names or a `.name_repair` argument. Using compatibility `.name_repair`.
This warning is displayed once per session.
# A tibble: 4,482 x 110
   V1    X100g.20_4_c.gl… X101g.21_1_d.gl… X102g.21_2_d.gl…
   <chr> <chr>            <chr>            <chr>           
 1 YJR1… 0.22             0.18             0.05            
 2 YPL2… -0.29            -0.2             -0.19           
 3 YDR5… 0.72             0.04             0.26            
 4 YDR2… 0.23             0.31             0.12            
 5 YHR0… 0.4              -0.04            0.36            
 6 YFR0… -0.36            0.35             -0.26           
 7 YPL1… 0.23             -0.21            -0.25           
 8 YDR0… -0.09            0.57             0.24            
 9 YLR3… -0.23            0.13             -0.17           
10 YCR0… -0.25            -0.98            -0.3            
# … with 4,472 more rows, and 106 more variables:
#   X103g.21_3_d.glucose <chr>, X104g.21_4_d.glucose <chr>,
#   X105g.21_5_c.glucose <chr>, X106g.22_2_d.glucose <chr>,
#   X107g.22_3_b.glucose <chr>, X109g.22_5_d.glucose <chr>,
#   X10g.2_5_d.glucose <chr>, X110g.23_3_d.glucose <chr>,
#   X111g.23_5_d.glucose <chr>, X112g.24_1_d.glucose <chr>,
#   X113g.25_1_d.glucose <chr>, X114g.25_3_d.glucose <chr>,
#   X115g.25_4_d.glucose <chr>, X116g.26_1_d.glucose <chr>,
#   X117g.26_2_d.glucose <chr>, X11g.2_6_d.glucose <chr>,
…
10.1.3 Gene Position Matrix

> exp.pos %>% cbind(rownames(exp.pos), .) %>% as_tibble() %>% 
+   print()
# A tibble: 4,482 x 4
   V1      Chromsome Start_coord End_coord
   <chr>   <chr>     <chr>       <chr>    
 1 YJR107W 10        627333      628319   
 2 YPL270W 16        30482       32803    
 3 YDR518W 4         1478600     1480153  
 4 YDR233C 4         930353      929466   
 5 YHR098C 8         301937      299148   
 6 YFR029W 6         210925      212961   
 7 YPL198W 16        173151      174701   
 8 YDR001C 4         452472      450217   
 9 YLR394W 12        907950      909398   
10 YCR079W 3         252842      254170   
# … with 4,472 more rows
…
10.1.6 Gene Positions

Let’s first pull out rownames of exp.pos and make them a column in the data frame.

> gene_pos <- exp.pos %>% as_tibble() %>%
+   mutate(gene = rownames(exp.pos)) %>%
+   dplyr::select(gene, chr = Chromsome, start = Start_coord, 
+                 end = End_coord)
> print(gene_pos, n=7)
# A tibble: 4,482 x 4
  gene      chr   start     end
  <chr>   <int>   <int>   <int>
1 YJR107W    10  627333  628319
2 YPL270W    16   30482   32803
3 YDR518W     4 1478600 1480153
4 YDR233C     4  930353  929466
5 YHR098C     8  301937  299148
6 YFR029W     6  210925  212961
7 YPL198W    16  173151  174701
# … with 4,475 more rows
…
Get the mean and standard deviation expression per chromosome in each condition.

> sk_tidy %>%
+   group_by(chr, condition) %>%
+   summarize(mean = mean(expression), sd=sd(expression))
# A tibble: 32 x 4
# Groups:   chr [16]
     chr condition      mean    sd
   <int> <chr>         <dbl> <dbl>
 1     1 ethanol    0.0260   0.480
 2     1 glucose   -0.178    1.05 
 3     2 ethanol    0.0132   0.479
 4     2 glucose   -0.103    0.750
 5     3 ethanol    0.000164 0.536
 6     3 glucose   -0.0461   0.800
 7     4 ethanol    0.00187  0.482
 8     4 glucose   -0.0484   0.586
 9     5 ethanol   -0.0297   0.479
10     5 glucose   -0.0862   0.716
# … with 22 more rows
…
To plot expression in glucose versus ethanol we first need to use dcast().

> sk_tidy %>% dcast(gene + segregant ~ condition, 
+                   value.var = "expression") %>%
+   as_tibble()
# A tibble: 488,102 x 4
   gene    segregant ethanol glucose
   <chr>   <chr>       <dbl>   <dbl>
 1 YAL002W 1_1_d        0.37   -0.01
 2 YAL002W 1_3_d        0.23    0.03
 3 YAL002W 1_4_d        0.08    0.07
 4 YAL002W 1_5_c       -0.12    0.13
 5 YAL002W 10_1_c       0.12   -0.1 
 6 YAL002W 10_2_d       0.1    -0.2 
 7 YAL002W 10_3_c       0.07   -0.15
 8 YAL002W 10_4_d       0.06   -0.04
 9 YAL002W 11_1_a       0.07   -0.07
10 YAL002W 11_2_d       0.3     0.1 
# … with 488,092 more rows
…
